<svg width="13" height="16" viewBox="0 0 13 16" fill="none" xmlns="http://www.w3.org/2000/svg">
<path d="M12.1299 4.9018H5.19228L8.29906 1.79503C8.47067 1.62341 8.47067 1.34516 8.29906 1.17351L7.51182 0.386272C7.11137 -0.0141741 6.46211 -0.0141741 6.06164 0.386272L5.25219 1.19575L4.83783 0.781387C4.38093 0.324458 3.63743 0.324487 3.1805 0.781387L1.56459 2.39729C1.10766 2.85422 1.10766 3.59772 1.56459 4.05465L1.97892 4.46902L1.16948 5.27846C0.769029 5.67891 0.769029 6.32817 1.16948 6.72864L1.95672 7.51588C2.1283 7.6875 2.40659 7.68753 2.5782 7.51588L3.69206 6.40202V13.1816C3.69206 14.2333 4.54469 15.086 5.59645 15.086H10.2256C11.2773 15.086 12.1299 14.2333 12.1299 13.1816V4.9018ZM2.60044 3.84747L2.1861 3.43314C2.07188 3.31891 2.07188 3.13303 2.1861 3.01878L3.80201 1.40287C3.91626 1.28862 4.10215 1.28865 4.21634 1.40287L4.63068 1.81723L2.60044 3.84747ZM6.39523 12.6249C6.39523 12.8676 6.19848 13.0644 5.95576 13.0644C5.71305 13.0644 5.51629 12.8676 5.51629 12.6249V7.36287C5.51629 7.12015 5.71305 6.9234 5.95576 6.9234C6.19848 6.9234 6.39523 7.12015 6.39523 7.36287V12.6249ZM8.35047 12.6249C8.35047 12.8676 8.15372 13.0644 7.911 13.0644C7.66829 13.0644 7.47154 12.8676 7.47154 12.6249V7.36287C7.47154 7.12015 7.66829 6.9234 7.911 6.9234C8.15372 6.9234 8.35047 7.12015 8.35047 7.36287V12.6249ZM10.3057 12.6249C10.3057 12.8676 10.109 13.0644 9.86625 13.0644C9.62353 13.0644 9.42678 12.8676 9.42678 12.6249V7.36287C9.42678 7.12015 9.62353 6.9234 9.86625 6.9234C10.109 6.9234 10.3057 7.12015 10.3057 7.36287V12.6249Z" fill="white"/>
<path d="M8.39933 3.41241C8.13124 3.50586 7.94316 3.74524 7.91211 4.023H12.1287V3.29259C12.1287 2.79107 11.6353 2.43811 11.1613 2.5988L8.40844 3.40948C8.40548 3.41033 8.40226 3.4115 8.39933 3.41241Z" fill="white"/>
</svg>
