<svg width="10" height="6" viewBox="0 0 10 6" fill="currentcolor" xmlns="http://www.w3.org/2000/svg">
	<path d="M4.71411 6C4.54513 6 4.37618 5.92797 4.24735 5.78422L0.193413 1.25832C-0.0644709 0.970413 -0.0644709 0.503627 0.193413 0.21584C0.451192 -0.0719468 0.869223 -0.0719468 1.12713 0.21584L4.71411 4.22061L8.30111 0.21598C8.55899 -0.0718069 8.97698 -0.0718069 9.23474 0.21598C9.49275 0.503767 9.49275 0.970553 9.23474 1.25846L5.18086 5.78436C5.05197 5.92814 4.88302 6 4.71411 6Z" />
</svg>
